Scraping a Wikipedia Table | David Witkowski
…
Scraping a webpage is surprisingly easy with the convenient rvest package. You only need little knowledge about CSS selectors to access the information you are interested in, in this case the whole table which is converted into a data frame.

url <- 'https://fr.wikipedia.org/wiki/Liste_des_communes_du_Bas-Rhin'
webpage <- read_html(url)
table <- html_nodes(webpage,'table.wikitable')
table <- html_table(table, header = TRUE)
bas_rhin <- table %>%
  bind_rows() %>%
  as_tibble()

The resulting data frame consists of 514 observations and 10 variables.

## # A tibble: 514 x 10
##    Nom   CodeInsee `Code postal` Arrondissement Canton Intercommunalité
##    <chr> <chr>             <dbl> <chr>          <chr>  <chr>           
##  1 Stra… 67482           6.70e14 Strasbourg     Stras… Eurométropole d…
##  2 Ache… 67001           6.72e 4 Strasbourg     Lingo… Eurométropole d…
##  3 Adam… 67002           6.73e 4 Saverne        Ingwi… CC de l'Alsace …
##  4 Albé  67003           6.72e 4 Sélestat-Erst… Mutzig CC de la Vallée…
##  5 Alte… 67005           6.73e 4 Saverne        Bouxw… CC du Pays de l…
##  6 Alte… 67006           6.75e 4 Saverne        Saver… CC du Pays de S…
##  7 Alto… 67008           6.71e 4 Molsheim       Molsh… CC de la région…
##  8 Altw… 67009           6.73e 4 Saverne        Ingwi… CC de l'Alsace …
##  9 Andl… 67010           6.71e 4 Sélestat-Erst… Obern… CC du Pays de B…
## 10 Arto… 67011           6.74e 4 Sélestat-Erst… Séles… CC de Marckolsh…
## # … with 504 more rows, and 4 more variables: `Superficie(km2)` <chr>,
## #   `Population(dernière pop. légale)` <chr>, `Densité(hab./km2)` <chr>,
## #   Modifier <lgl>
…
# Densité
head(bas_rhin$`Densité(hab./km2)`)
# Data-Preprocessing: removing white space and converting to numeric
bas_rhin <- bas_rhin %>%   
  mutate(`Densité(hab./km2)` = str_replace_all(`Densité(hab./km2)`, "\\p{WHITE_SPACE}", "")) %>%
  mutate(`Densité(hab./km2)` = as.numeric(`Densité(hab./km2)`)) %>%
  rename(densite = `Densité(hab./km2)`)

# Delete last column "Modifier"
bas_rhin <- bas_rhin %>%
  select(-Modifier)

The clean data set can be downloaded here.

## # A tibble: 514 x 11
##    nom   code_postal_1 code_postal_2 code_postal_3 code_insee
##    <chr> <chr>         <chr>         <chr>              <dbl>
##  1 Stra… 67000         67100         67200              67482
##  2 Ache… 67204         ""            ""                 67001
##  3 Adam… 67320         ""            ""                 67002
##  4 Albé  67220         ""            ""                 67003
##  5 Alte… 67270         ""            ""                 67005
##  6 Alte… 67490         ""            ""                 67006
##  7 Alto… 67120         ""            ""                 67008
##  8 Altw… 67260         ""            ""                 67009
##  9 Andl… 67140         ""            ""                 67010
## 10 Arto… 67390         ""            ""                 67011
## # … with 504 more rows, and 6 more variables: arrondissement <chr>,
## #   canton <chr>, intercommunalité <chr>, superficie <dbl>,
## #   population <dbl>, densite <dbl>
